\relax 
\citation{bertin2011million}
\citation{bertin2011million}
\citation{cherkassky2007learning}
\citation{chang2011libsvm}
\citation{ho2012large}
\@writefile{toc}{\contentsline {section}{Project Homepage}{1}}
\@writefile{toc}{\contentsline {section}{Dataset}{1}}
\@writefile{lot}{\contentsline {table}{\numberline {1}{\ignorespaces Dataset characteristics\relax }}{1}}
\providecommand*\caption@xref[2]{\@setref\relax\@undefined{#1}}
\newlabel{tab:dataset}{{1}{1}}
\citation{bertin2011million}
\citation{cherkassky1999model}
\citation{cherkassky2003comparison}
\citation{cherkassky2007learning}
\@writefile{toc}{\contentsline {section}{Problem Statements and Goals}{2}}
\@writefile{toc}{\contentsline {section}{Literature Review}{2}}
\@writefile{toc}{\contentsline {section}{Prior and Related Works}{2}}
\@writefile{toc}{\contentsline {section}{Part 1: Regression problem}{2}}
\@writefile{toc}{\contentsline {subsection}{Formulation and setup}{2}}
\citation{murphy2012machine}
\@writefile{toc}{\contentsline {subsubsection}{VC generalization bounds for regression problems}{3}}
\newlabel{eq:vc}{{2}{3}}
\@writefile{toc}{\contentsline {subsubsection}{Normalization}{3}}
\@writefile{toc}{\contentsline {subsubsection}{Feature selection}{3}}
\@writefile{toc}{\contentsline {subsubsection}{Feature reduction using Principal Component Analysis (PCA)}{4}}
\@writefile{toc}{\contentsline {subsubsection}{Linear regression}{4}}
\@writefile{toc}{\contentsline {subsubsection}{$\phi $-machine}{4}}
\@writefile{toc}{\contentsline {subsubsection}{CART}{4}}
\citation{smola2004tutorial}
\citation{scholkopf2000new}
\citation{chang2002training}
\@writefile{toc}{\contentsline {subsubsection}{Support vector regression}{5}}
\newlabel{eq:opt}{{14}{5}}
\newlabel{eq:opt2}{{15}{5}}
\citation{bertin2011million}
\citation{abu2012learning}
\citation{bertin2011million}
\@writefile{lof}{\contentsline {figure}{\numberline {1}{\ignorespaces $\epsilon $-insensitive loss function.\relax }}{6}}
\newlabel{fig:Le}{{1}{6}}
\@writefile{toc}{\contentsline {subsubsection}{DNN}{6}}
\@writefile{toc}{\contentsline {subsection}{Methodology}{6}}
\@writefile{toc}{\contentsline {subsubsection}{Hypothesis set}{6}}
\citation{bertin2011million}
\@writefile{toc}{\contentsline {subsubsection}{Training procedure}{7}}
\@writefile{toc}{\contentsline {subsubsection}{Model selection and validation}{7}}
\@writefile{toc}{\contentsline {subsubsection}{Testing}{7}}
\@writefile{toc}{\contentsline {subsection}{Implementation}{7}}
\@writefile{toc}{\contentsline {subsubsection}{Feature space}{7}}
\@writefile{toc}{\contentsline {subsubsection}{Preprocessing}{7}}
\@writefile{toc}{\contentsline {subsubsection}{Training, validation and model selection}{7}}
\citation{bertin2011million}
\@writefile{toc}{\contentsline {subsection}{Final Results}{8}}
\@writefile{lot}{\contentsline {table}{\numberline {2}{\ignorespaces Test mean-squared errors (MSE) using different regression techniques\relax }}{8}}
\newlabel{tab:reg1}{{2}{8}}
\@writefile{lot}{\contentsline {table}{\numberline {3}{\ignorespaces Test errors in years using different regression techniques\relax }}{8}}
\newlabel{tab:reg2}{{3}{8}}
\@writefile{lot}{\contentsline {table}{\numberline {4}{\ignorespaces Percentage correct prediction using different regression techniques\relax }}{9}}
\newlabel{tab:reg3}{{4}{9}}
\@writefile{lot}{\contentsline {table}{\numberline {5}{\ignorespaces Performance of support vector regression (SVR)\relax }}{9}}
\newlabel{tab:svr1}{{5}{9}}
\@writefile{lot}{\contentsline {table}{\numberline {6}{\ignorespaces Performance of support vector regression (SVR) in terms of test errors in years\relax }}{9}}
\newlabel{tab:svr2}{{6}{9}}
\@writefile{lot}{\contentsline {table}{\numberline {7}{\ignorespaces Performance of support vector regression (SVR) in terms of test errors in years\relax }}{9}}
\newlabel{tab:svr3}{{7}{9}}
\@writefile{toc}{\contentsline {subsection}{Interpretations}{9}}
\@writefile{toc}{\contentsline {section}{Part 2: Classification problem}{9}}
\@writefile{toc}{\contentsline {subsection}{Formulation and setup}{9}}
\bibstyle{plain}
\bibdata{Lit_database_usc}
\@writefile{toc}{\contentsline {subsubsection}{CART with PCA based feature reduction}{10}}
\@writefile{toc}{\contentsline {subsubsection}{Support Vector Classification}{10}}
\@writefile{toc}{\contentsline {subsection}{Methodology}{10}}
\@writefile{toc}{\contentsline {subsection}{Implementation and Results}{10}}
\@writefile{toc}{\contentsline {subsection}{Interpretations}{10}}
\@writefile{toc}{\contentsline {section}{Part 3: Unsupervised learning}{10}}
\@writefile{toc}{\contentsline {subsection}{Formulation and setup}{10}}
\@writefile{toc}{\contentsline {subsubsection}{$k$-means clustering}{10}}
\@writefile{toc}{\contentsline {subsubsection}{Gaussian mixture model (GMM)}{10}}
\@writefile{toc}{\contentsline {subsubsection}{$k$-medoids}{10}}
\@writefile{toc}{\contentsline {section}{Summary and Conclusions}{10}}
\newlabel{section:references}{{}{10}}
\bibcite{abu2012learning}{1}
\bibcite{bertin2011million}{2}
\bibcite{chang2002training}{3}
\bibcite{chang2011libsvm}{4}
\bibcite{cherkassky2003comparison}{5}
\bibcite{cherkassky2007learning}{6}
\bibcite{cherkassky1999model}{7}
\bibcite{ho2012large}{8}
\bibcite{murphy2012machine}{9}
\bibcite{scholkopf2000new}{10}
\bibcite{smola2004tutorial}{11}
\newlabel{section:Individual Contribution}{{}{11}}
\@writefile{toc}{\contentsline {section}{Individual Contribution List}{12}}
